<?xml version="1.0" encoding="UTF-8" standalone="no"?>
<svg
   xmlns:dc="http://purl.org/dc/elements/1.1/"
   xmlns:cc="http://creativecommons.org/ns#"
   xmlns:rdf="http://www.w3.org/1999/02/22-rdf-syntax-ns#"
   xmlns:svg="http://www.w3.org/2000/svg"
   xmlns="http://www.w3.org/2000/svg"
   xmlns:sodipodi="http://sodipodi.sourceforge.net/DTD/sodipodi-0.dtd"
   xmlns:inkscape="http://www.inkscape.org/namespaces/inkscape"
   width="512"
   height="512"
   viewBox="0 0 135.46666 135.46666"
   version="1.1"
   id="svg8"
   inkscape:version="1.0.2 (e86c870879, 2021-01-15)"
   sodipodi:docname="klayout_pnr_logo_square.svg">
  <title
     id="title817">LibrEDA KLayout-PNR Logo</title>
  <defs
     id="defs2" />
  <sodipodi:namedview
     id="base"
     pagecolor="#ffffff"
     bordercolor="#666666"
     borderopacity="1.0"
     inkscape:pageopacity="0.0"
     inkscape:pageshadow="2"
     inkscape:zoom="0.70710678"
     inkscape:cx="-178.83327"
     inkscape:cy="353.5846"
     inkscape:document-units="mm"
     inkscape:current-layer="g4546"
     showgrid="false"
     units="px"
     inkscape:window-width="1362"
     inkscape:window-height="729"
     inkscape:window-x="0"
     inkscape:window-y="18"
     inkscape:window-maximized="0"
     inkscape:snap-grids="true"
     inkscape:snap-to-guides="true"
     inkscape:document-rotation="0">
    <inkscape:grid
       type="xygrid"
       id="grid815"
       empspacing="4" />
  </sodipodi:namedview>
  <metadata
     id="metadata5">
    <rdf:RDF>
      <cc:Work
         rdf:about="">
        <dc:format>image/svg+xml</dc:format>
        <dc:type
           rdf:resource="http://purl.org/dc/dcmitype/StillImage" />
        <dc:title>LibrEDA KLayout-PNR Logo</dc:title>
        <dc:creator>
          <cc:Agent>
            <dc:title>Thomas Kramer</dc:title>
          </cc:Agent>
        </dc:creator>
        <cc:license
           rdf:resource="http://creativecommons.org/licenses/by-sa/4.0/" />
      </cc:Work>
      <cc:License
         rdf:about="http://creativecommons.org/licenses/by-sa/4.0/">
        <cc:permits
           rdf:resource="http://creativecommons.org/ns#Reproduction" />
        <cc:permits
           rdf:resource="http://creativecommons.org/ns#Distribution" />
        <cc:requires
           rdf:resource="http://creativecommons.org/ns#Notice" />
        <cc:requires
           rdf:resource="http://creativecommons.org/ns#Attribution" />
        <cc:permits
           rdf:resource="http://creativecommons.org/ns#DerivativeWorks" />
        <cc:requires
           rdf:resource="http://creativecommons.org/ns#ShareAlike" />
      </cc:License>
    </rdf:RDF>
  </metadata>
  <g
     inkscape:label="Layer 1"
     inkscape:groupmode="layer"
     id="layer1"
     transform="translate(0,-161.53336)">
    <g
       id="g4566">
      <g
         transform="translate(-4.2333367,4.2333333)"
         id="g1076">
        <path
           style="fill:none;stroke:#000000;stroke-width:6.3499999;stroke-linecap:square;stroke-linejoin:miter;stroke-miterlimit:4;stroke-dasharray:none;stroke-opacity:1"
           d="m 21.16667,174.23336 v 101.6 h 101.6"
           id="path819"
           inkscape:connector-curvature="0" />
        <g
           id="g1062">
          <path
             inkscape:connector-curvature="0"
             id="path821"
             d="m 21.16667,191.1667 h -12.7"
             style="fill:none;stroke:#000000;stroke-width:6.3499999;stroke-linecap:square;stroke-linejoin:miter;stroke-miterlimit:4;stroke-dasharray:none;stroke-opacity:1" />
          <path
             style="fill:none;stroke:#000000;stroke-width:6.3499999;stroke-linecap:square;stroke-linejoin:miter;stroke-miterlimit:4;stroke-dasharray:none;stroke-opacity:1"
             d="M 21.16667,208.10003 H 8.4666703"
             id="path825"
             inkscape:connector-curvature="0" />
          <path
             inkscape:connector-curvature="0"
             id="path827"
             d="M 21.16667,225.03336 H 8.4666706"
             style="fill:none;stroke:#000000;stroke-width:6.3499999;stroke-linecap:square;stroke-linejoin:miter;stroke-miterlimit:4;stroke-dasharray:none;stroke-opacity:1" />
          <path
             style="fill:none;stroke:#000000;stroke-width:6.3499999;stroke-linecap:square;stroke-linejoin:miter;stroke-miterlimit:4;stroke-dasharray:none;stroke-opacity:1"
             d="M 21.16667,241.9667 H 8.466671"
             id="path829"
             inkscape:connector-curvature="0" />
          <path
             inkscape:connector-curvature="0"
             id="path831"
             d="M 21.16667,258.90003 H 8.466671"
             style="fill:none;stroke:#000000;stroke-width:6.3499999;stroke-linecap:square;stroke-linejoin:miter;stroke-miterlimit:4;stroke-dasharray:none;stroke-opacity:1" />
          <path
             style="fill:none;stroke:#000000;stroke-width:6.3499999;stroke-linecap:square;stroke-linejoin:miter;stroke-miterlimit:4;stroke-dasharray:none;stroke-opacity:1"
             d="m 38.100008,275.83336 v 12.7"
             id="path840"
             inkscape:connector-curvature="0" />
          <path
             inkscape:connector-curvature="0"
             id="path842"
             d="m 55.033338,275.83336 v 12.7"
             style="fill:none;stroke:#000000;stroke-width:6.3499999;stroke-linecap:square;stroke-linejoin:miter;stroke-miterlimit:4;stroke-dasharray:none;stroke-opacity:1" />
          <path
             style="fill:none;stroke:#000000;stroke-width:6.3499999;stroke-linecap:square;stroke-linejoin:miter;stroke-miterlimit:4;stroke-dasharray:none;stroke-opacity:1"
             d="m 71.966668,275.83336 v 12.7"
             id="path844"
             inkscape:connector-curvature="0" />
          <path
             inkscape:connector-curvature="0"
             id="path846"
             d="m 88.900008,275.83336 v 12.7"
             style="fill:none;stroke:#000000;stroke-width:6.3499999;stroke-linecap:square;stroke-linejoin:miter;stroke-miterlimit:4;stroke-dasharray:none;stroke-opacity:1" />
          <path
             style="fill:none;stroke:#000000;stroke-width:6.3499999;stroke-linecap:square;stroke-linejoin:miter;stroke-miterlimit:4;stroke-dasharray:none;stroke-opacity:1"
             d="m 105.83334,275.83336 v 12.7"
             id="path848"
             inkscape:connector-curvature="0" />
        </g>
      </g>
      <g
         id="g4546">
        <path
           style="fill:#0585ff;fill-opacity:1;stroke:none;stroke-width:0.26458332px;stroke-linecap:butt;stroke-linejoin:miter;stroke-opacity:1"
           d="m -42.700272,-36.802659 v 97.36667 h 97.366666 v -21.16667 h -76.2 v -76.2 z"
           id="path894"
           inkscape:connector-curvature="0"
           sodipodi:nodetypes="ccccccc" />
        <path
           sodipodi:nodetypes="ccccccc"
           inkscape:connector-curvature="0"
           id="path904"
           d="m -15.183609,-38.919329 v 71.96667 H 56.783054 V 11.880671 H 5.9830573 v -50.8 z"
           style="fill:#0585ff;fill-opacity:0.74901961;stroke:none;stroke-width:0.26458332px;stroke-linecap:butt;stroke-linejoin:miter;stroke-opacity:1" />
        <path
           style="fill:#0585ff;fill-opacity:0.49803922;stroke:none;stroke-width:0.26458332px;stroke-linecap:butt;stroke-linejoin:miter;stroke-opacity:1"
           d="M 12.333057,-41.035999 V 5.5306707 H 58.899724 V -15.635999 h -25.4 v -25.4 z"
           id="path906"
           inkscape:connector-curvature="0"
           sodipodi:nodetypes="ccccccc" />
        <circle
           style="opacity:1;fill:#dda940;fill-opacity:1;stroke:none;stroke-width:4.0999999;stroke-linecap:round;stroke-linejoin:miter;stroke-miterlimit:4;stroke-dasharray:none;stroke-opacity:1"
           id="path2859"
           cx="74.835464"
           cy="222.16457"
           r="49.391407" />
        <text
           xml:space="preserve"
           style="font-style:normal;font-weight:normal;font-size:76.3386px;line-height:1.25;font-family:sans-serif;letter-spacing:0px;word-spacing:0px;fill:#573d1c;fill-opacity:1;stroke:none;stroke-width:0.397597"
           x="24.061979"
           y="247.45276"
           id="text3425"
           transform="scale(0.93880682,1.0651819)"><tspan
             sodipodi:role="line"
             id="tspan3423"
             x="24.061979"
             y="247.45276"
             style="font-style:normal;font-variant:normal;font-weight:normal;font-stretch:normal;font-family:'Quicksand Medium';-inkscape-font-specification:'Quicksand Medium, ';fill:#573d1c;fill-opacity:1;stroke-width:0.397597">K</tspan></text>
        <path
           sodipodi:nodetypes="ccccc"
           inkscape:connector-curvature="0"
           id="path908"
           d="m 107.95,167.88336 v 21.16667 h 21.16667 v -21.16667 z"
           style="fill:#0585ff;fill-opacity:1;stroke:none;stroke-width:0.26458332px;stroke-linecap:butt;stroke-linejoin:miter;stroke-opacity:1" />
        <text
           id="text3431"
           y="240.48488"
           x="68.213737"
           style="font-style:normal;font-weight:normal;font-size:34.034px;line-height:1.25;font-family:sans-serif;letter-spacing:0px;word-spacing:0px;fill:#573d1c;fill-opacity:1;stroke:none;stroke-width:0.17726"
           xml:space="preserve"><tspan
             style="font-style:normal;font-variant:normal;font-weight:normal;font-stretch:normal;font-family:'Quicksand Medium';-inkscape-font-specification:'Quicksand Medium, ';fill:#573d1c;fill-opacity:1;stroke-width:0.17726"
             y="240.48488"
             x="68.213737"
             id="tspan3429"
             sodipodi:role="line">pnr</tspan></text>
      </g>
    </g>
  </g>
</svg>
