<?xml version="1.0" encoding="UTF-8" standalone="no"?>
<!-- Created with Inkscape (http://www.inkscape.org/) -->

<svg
   xmlns:dc="http://purl.org/dc/elements/1.1/"
   xmlns:cc="http://creativecommons.org/ns#"
   xmlns:rdf="http://www.w3.org/1999/02/22-rdf-syntax-ns#"
   xmlns:svg="http://www.w3.org/2000/svg"
   xmlns="http://www.w3.org/2000/svg"
   xmlns:sodipodi="http://sodipodi.sourceforge.net/DTD/sodipodi-0.dtd"
   xmlns:inkscape="http://www.inkscape.org/namespaces/inkscape"
   width="512"
   height="512"
   viewBox="0 0 135.46666 135.46666"
   version="1.1"
   id="svg8"
   inkscape:version="0.92.4 (5da689c313, 2019-01-14)"
   sodipodi:docname="libreda_webpage_logo_square.svg">
  <title
     id="title817">LibrEDA Logo</title>
  <defs
     id="defs2" />
  <sodipodi:namedview
     id="base"
     pagecolor="#ffffff"
     bordercolor="#666666"
     borderopacity="1.0"
     inkscape:pageopacity="0.0"
     inkscape:pageshadow="2"
     inkscape:zoom="1"
     inkscape:cx="272.60422"
     inkscape:cy="240.10872"
     inkscape:document-units="mm"
     inkscape:current-layer="layer1"
     showgrid="true"
     units="px"
     inkscape:window-width="1362"
     inkscape:window-height="729"
     inkscape:window-x="0"
     inkscape:window-y="18"
     inkscape:window-maximized="0"
     inkscape:snap-grids="true"
     inkscape:snap-to-guides="true">
    <inkscape:grid
       type="xygrid"
       id="grid815"
       empspacing="4" />
  </sodipodi:namedview>
  <metadata
     id="metadata5">
    <rdf:RDF>
      <cc:Work
         rdf:about="">
        <dc:format>image/svg+xml</dc:format>
        <dc:type
           rdf:resource="http://purl.org/dc/dcmitype/StillImage" />
        <dc:title>LibrEDA Logo</dc:title>
        <dc:creator>
          <cc:Agent>
            <dc:title>Thomas Kramer</dc:title>
          </cc:Agent>
        </dc:creator>
        <cc:license
           rdf:resource="" />
      </cc:Work>
    </rdf:RDF>
  </metadata>
  <g
     inkscape:label="Layer 1"
     inkscape:groupmode="layer"
     id="layer1"
     transform="translate(0,-161.53336)">
    <g
       id="g4566">
      <g
         transform="translate(-4.2333367,4.2333333)"
         id="g1076">
        <path
           style="fill:none;stroke:#000000;stroke-width:6.3499999;stroke-linecap:square;stroke-linejoin:miter;stroke-miterlimit:4;stroke-dasharray:none;stroke-opacity:1"
           d="m 21.16667,174.23336 v 101.6 h 101.6"
           id="path819"
           inkscape:connector-curvature="0" />
        <g
           id="g1062">
          <path
             inkscape:connector-curvature="0"
             id="path821"
             d="m 21.16667,191.1667 h -12.7"
             style="fill:none;stroke:#000000;stroke-width:6.3499999;stroke-linecap:square;stroke-linejoin:miter;stroke-miterlimit:4;stroke-dasharray:none;stroke-opacity:1" />
          <path
             style="fill:none;stroke:#000000;stroke-width:6.3499999;stroke-linecap:square;stroke-linejoin:miter;stroke-miterlimit:4;stroke-dasharray:none;stroke-opacity:1"
             d="M 21.16667,208.10003 H 8.4666703"
             id="path825"
             inkscape:connector-curvature="0" />
          <path
             inkscape:connector-curvature="0"
             id="path827"
             d="M 21.16667,225.03336 H 8.4666706"
             style="fill:none;stroke:#000000;stroke-width:6.3499999;stroke-linecap:square;stroke-linejoin:miter;stroke-miterlimit:4;stroke-dasharray:none;stroke-opacity:1" />
          <path
             style="fill:none;stroke:#000000;stroke-width:6.3499999;stroke-linecap:square;stroke-linejoin:miter;stroke-miterlimit:4;stroke-dasharray:none;stroke-opacity:1"
             d="M 21.16667,241.9667 H 8.466671"
             id="path829"
             inkscape:connector-curvature="0" />
          <path
             inkscape:connector-curvature="0"
             id="path831"
             d="M 21.16667,258.90003 H 8.466671"
             style="fill:none;stroke:#000000;stroke-width:6.3499999;stroke-linecap:square;stroke-linejoin:miter;stroke-miterlimit:4;stroke-dasharray:none;stroke-opacity:1" />
          <path
             style="fill:none;stroke:#000000;stroke-width:6.3499999;stroke-linecap:square;stroke-linejoin:miter;stroke-miterlimit:4;stroke-dasharray:none;stroke-opacity:1"
             d="m 38.100008,275.83336 v 12.7"
             id="path840"
             inkscape:connector-curvature="0" />
          <path
             inkscape:connector-curvature="0"
             id="path842"
             d="m 55.033338,275.83336 v 12.7"
             style="fill:none;stroke:#000000;stroke-width:6.3499999;stroke-linecap:square;stroke-linejoin:miter;stroke-miterlimit:4;stroke-dasharray:none;stroke-opacity:1" />
          <path
             style="fill:none;stroke:#000000;stroke-width:6.3499999;stroke-linecap:square;stroke-linejoin:miter;stroke-miterlimit:4;stroke-dasharray:none;stroke-opacity:1"
             d="m 71.966668,275.83336 v 12.7"
             id="path844"
             inkscape:connector-curvature="0" />
          <path
             inkscape:connector-curvature="0"
             id="path846"
             d="m 88.900008,275.83336 v 12.7"
             style="fill:none;stroke:#000000;stroke-width:6.3499999;stroke-linecap:square;stroke-linejoin:miter;stroke-miterlimit:4;stroke-dasharray:none;stroke-opacity:1" />
          <path
             style="fill:none;stroke:#000000;stroke-width:6.3499999;stroke-linecap:square;stroke-linejoin:miter;stroke-miterlimit:4;stroke-dasharray:none;stroke-opacity:1"
             d="m 105.83334,275.83336 v 12.7"
             id="path848"
             inkscape:connector-curvature="0" />
        </g>
      </g>
      <g
         id="g4546">
        <path
           style="fill:#0585ff;fill-opacity:1;stroke:none;stroke-width:0.26458332px;stroke-linecap:butt;stroke-linejoin:miter;stroke-opacity:1"
           d="m 25.400004,174.23336 v 97.36667 h 97.366666 v -21.16667 h -76.2 v -76.2 z"
           id="path894"
           inkscape:connector-curvature="0"
           sodipodi:nodetypes="ccccccc" />
        <path
           sodipodi:nodetypes="ccccccc"
           inkscape:connector-curvature="0"
           id="path904"
           d="m 52.916667,172.11669 v 71.96667 H 124.88333 V 222.91669 H 74.083333 v -50.8 z"
           style="fill:#0585ff;fill-opacity:0.74901961;stroke:none;stroke-width:0.26458332px;stroke-linecap:butt;stroke-linejoin:miter;stroke-opacity:1" />
        <path
           style="fill:#0585ff;fill-opacity:0.49803922;stroke:none;stroke-width:0.26458332px;stroke-linecap:butt;stroke-linejoin:miter;stroke-opacity:1"
           d="m 80.433333,170.00002 v 46.56667 H 127 v -21.16667 h -25.4 v -25.4 z"
           id="path906"
           inkscape:connector-curvature="0"
           sodipodi:nodetypes="ccccccc" />
        <path
           sodipodi:nodetypes="ccccc"
           inkscape:connector-curvature="0"
           id="path908"
           d="m 107.95,167.88336 v 21.16667 h 21.16667 v -21.16667 z"
           style="fill:#0585ff;fill-opacity:0.24705882;stroke:none;stroke-width:0.26458332px;stroke-linecap:butt;stroke-linejoin:miter;stroke-opacity:1" />
      </g>
    </g>
    <text
       xml:space="preserve"
       style="font-style:normal;font-variant:normal;font-weight:normal;font-stretch:normal;font-size:96.2299118px;line-height:1.25;font-family:RobotoBold;-inkscape-font-specification:RobotoBold;letter-spacing:0px;word-spacing:0px;fill:#000000;fill-opacity:1;stroke:none;stroke-width:0.50119746"
       x="22.325584"
       y="260.3233"
       id="text843"><tspan
         sodipodi:role="line"
         id="tspan841"
         x="22.325584"
         y="260.3233"
         style="font-style:normal;font-variant:normal;font-weight:normal;font-stretch:normal;font-family:Courier;-inkscape-font-specification:Courier;stroke-width:0.50119746">🌍</tspan></text>
  </g>
</svg>
